lab01/xrun_test_lab01.log
TOOL:	xrun	19.09-s003: Started on Nov 01, 2020 at 23:33:35 CET
xrun
	-f dut.f
		mtm_Alu.vp
	-f tb.f
		mtm_Alu_tb.sv
	-v93
	+nowarnDSEM2009
	+nowarnDSEMEL
	+nowarnCGDEFN
	-xmlibdirname INCA_libs
	+overwrite
	-nocopyright
	-coverage all
	-covoverwrite
	-covfile xrun_covfile.txt
	-covtest lab01
	-l xrun_test_lab01.log
INCLUDE $PDK_DIR/cds/cds.lib
|
xrun: *W,DLCVAR (/home/student/mwygrzywalski/cds.lib,1): cds.lib Invalid environment variable ''.
INCLUDE $PDK_DIR/cds/cds.lib
|
xrun: *W,DLCVAR (/home/student/mwygrzywalski/cds.lib,1): cds.lib Invalid environment variable ''.
INCLUDE $PDK_DIR/cds/cds.lib
|
xrun: *W,DLCVAR (/home/student/mwygrzywalski/cds.lib,1): cds.lib Invalid environment variable ''.
INCLUDE $PDK_DIR/cds/cds.lib
|
xrun: *W,DLCVAR (/home/student/mwygrzywalski/cds.lib,1): cds.lib Invalid environment variable ''.
INCLUDE $PDK_DIR/cds/cds.lib
|
xrun: *W,DLCVAR (/home/student/mwygrzywalski/cds.lib,1): cds.lib Invalid environment variable ''.
INCLUDE $PDK_DIR/cds/cds.lib
|
xrun: *W,DLCVAR (/home/student/mwygrzywalski/cds.lib,1): cds.lib Invalid environment variable ''.
INCLUDE $PDK_DIR/cds/cds.lib
|
xrun: *W,DLCVAR (/home/student/mwygrzywalski/cds.lib,1): cds.lib Invalid environment variable ''.
INCLUDE $PDK_DIR/cds/cds.lib
|
xmsim: *W,DLCVAR (/home/student/mwygrzywalski/cds.lib,1): cds.lib Invalid environment variable ''.
Loading snapshot worklib.mtm_Alu_tb:sv .................... Done
xcelium> source /cad/XCELIUM1909/tools/xcelium/files/xmsimrc
xcelium> run
PASSED: B: 0  A: 0  op: 0  err_flags: 0  C: 0  flags: 10
EXPECTED: err_flags: 0  C: 0  flags: 10 

PASSED: B: 0  A: 0  op: 1  err_flags: 0  C: 0  flags: 10
EXPECTED: err_flags: 0  C: 0  flags: 10 

PASSED: B: 0  A: 0  op: 1  err_flags: 0  C: 0  flags: 10
EXPECTED: err_flags: 0  C: 0  flags: 10 

PASSED: B: 0  A: 0  op: 101  err_flags: 0  C: 0  flags: 10
EXPECTED: err_flags: 0  C: 0  flags: 10 

PASSED: B: 0  A: 0  op: 1  err_flags: 0  C: 0  flags: 10
EXPECTED: err_flags: 0  C: 0  flags: 10 

PASSED: B: 0  A: 0  op: 1  err_flags: 0  C: 0  flags: 10
EXPECTED: err_flags: 0  C: 0  flags: 10 

PASSED: B: 0  A: 0  op: 1  err_flags: 0  C: 0  flags: 10
EXPECTED: err_flags: 0  C: 0  flags: 10 

PASSED: B: 0  A: 0  op: 100  err_flags: 0  C: 0  flags: 10
EXPECTED: err_flags: 0  C: 0  flags: 10 

PASSED: B: 0  A: 0  op: 1  err_flags: 0  C: 0  flags: 10
EXPECTED: err_flags: 0  C: 0  flags: 10 

PASSED: B: 0  A: 0  op: 1  err_flags: 0  C: 0  flags: 10
EXPECTED: err_flags: 0  C: 0  flags: 10 

PASSED: B: 0  A: 0  op: 100  err_flags: 0  C: 0  flags: 10
EXPECTED: err_flags: 0  C: 0  flags: 10 

PASSED: B: 0  A: 0  op: 1  err_flags: 0  C: 0  flags: 10
EXPECTED: err_flags: 0  C: 0  flags: 10 

PASSED: B: 0  A: 0  op: 1  err_flags: 0  C: 0  flags: 10
EXPECTED: err_flags: 0  C: 0  flags: 10 

PASSED: B: 0  A: 0  op: 0  err_flags: 0  C: 0  flags: 10
EXPECTED: err_flags: 0  C: 0  flags: 10 

PASSED: B: 0  A: 0  op: 1  err_flags: 0  C: 0  flags: 10
EXPECTED: err_flags: 0  C: 0  flags: 10 

PASSED: B: 0  A: 0  op: 100  err_flags: 0  C: 0  flags: 10
EXPECTED: err_flags: 0  C: 0  flags: 10 

PASSED: B: 0  A: 0  op: 1  err_flags: 0  C: 0  flags: 10
EXPECTED: err_flags: 0  C: 0  flags: 10 

PASSED: B: 0  A: 0  op: 100  err_flags: 0  C: 0  flags: 10
EXPECTED: err_flags: 0  C: 0  flags: 10 

PASSED: B: 0  A: 0  op: 1  err_flags: 0  C: 0  flags: 10
EXPECTED: err_flags: 0  C: 0  flags: 10 

PASSED: B: 0  A: 0  op: 101  err_flags: 0  C: 0  flags: 10
EXPECTED: err_flags: 0  C: 0  flags: 10 

PASSED: B: 0  A: 0  op: 100  err_flags: 0  C: 0  flags: 10
EXPECTED: err_flags: 0  C: 0  flags: 10 

PASSED: B: 0  A: 0  op: 101  err_flags: 0  C: 0  flags: 10
EXPECTED: err_flags: 0  C: 0  flags: 10 

PASSED: B: 0  A: 0  op: 100  err_flags: 0  C: 0  flags: 10
EXPECTED: err_flags: 0  C: 0  flags: 10 

PASSED: B: 0  A: 0  op: 100  err_flags: 0  C: 0  flags: 10
EXPECTED: err_flags: 0  C: 0  flags: 10 

PASSED: B: 0  A: 0  op: 0  err_flags: 0  C: 0  flags: 10
EXPECTED: err_flags: 0  C: 0  flags: 10 

PASSED: B: 0  A: 0  op: 1  err_flags: 0  C: 0  flags: 10
EXPECTED: err_flags: 0  C: 0  flags: 10 

PASSED: B: 0  A: 0  op: 0  err_flags: 0  C: 0  flags: 10
EXPECTED: err_flags: 0  C: 0  flags: 10 

PASSED: B: 0  A: 0  op: 1  err_flags: 0  C: 0  flags: 10
EXPECTED: err_flags: 0  C: 0  flags: 10 

PASSED: B: 0  A: 0  op: 1  err_flags: 0  C: 0  flags: 10
EXPECTED: err_flags: 0  C: 0  flags: 10 

PASSED: B: 0  A: 0  op: 1  err_flags: 0  C: 0  flags: 10
EXPECTED: err_flags: 0  C: 0  flags: 10 

PASSED: B: 0  A: 0  op: 101  err_flags: 0  C: 0  flags: 10
EXPECTED: err_flags: 0  C: 0  flags: 10 

PASSED: B: 0  A: 0  op: 100  err_flags: 0  C: 0  flags: 10
EXPECTED: err_flags: 0  C: 0  flags: 10 

PASSED: B: 0  A: 0  op: 0  err_flags: 0  C: 0  flags: 10
EXPECTED: err_flags: 0  C: 0  flags: 10 

PASSED: B: 0  A: 0  op: 0  err_flags: 0  C: 0  flags: 10
EXPECTED: err_flags: 0  C: 0  flags: 10 

PASSED: B: 0  A: 0  op: 100  err_flags: 0  C: 0  flags: 10
EXPECTED: err_flags: 0  C: 0  flags: 10 

PASSED: B: 0  A: 0  op: 1  err_flags: 0  C: 0  flags: 10
EXPECTED: err_flags: 0  C: 0  flags: 10 

PASSED: B: 0  A: 0  op: 100  err_flags: 0  C: 0  flags: 10
EXPECTED: err_flags: 0  C: 0  flags: 10 

PASSED: B: 0  A: 0  op: 101  err_flags: 0  C: 0  flags: 10
EXPECTED: err_flags: 0  C: 0  flags: 10 

PASSED: B: 0  A: 0  op: 1  err_flags: 0  C: 0  flags: 10
EXPECTED: err_flags: 0  C: 0  flags: 10 

PASSED: B: 0  A: 0  op: 101  err_flags: 0  C: 0  flags: 10
EXPECTED: err_flags: 0  C: 0  flags: 10 

PASSED: B: 0  A: 0  op: 101  err_flags: 0  C: 0  flags: 10
EXPECTED: err_flags: 0  C: 0  flags: 10 

PASSED: B: 0  A: 0  op: 1  err_flags: 0  C: 0  flags: 10
EXPECTED: err_flags: 0  C: 0  flags: 10 

PASSED: B: 0  A: 0  op: 100  err_flags: 0  C: 0  flags: 10
EXPECTED: err_flags: 0  C: 0  flags: 10 

PASSED: B: 0  A: 0  op: 100  err_flags: 0  C: 0  flags: 10
EXPECTED: err_flags: 0  C: 0  flags: 10 

PASSED: B: 0  A: 0  op: 1  err_flags: 0  C: 0  flags: 10
EXPECTED: err_flags: 0  C: 0  flags: 10 

PASSED: B: 0  A: 0  op: 101  err_flags: 0  C: 0  flags: 10
EXPECTED: err_flags: 0  C: 0  flags: 10 

PASSED: B: 0  A: 0  op: 101  err_flags: 0  C: 0  flags: 10
EXPECTED: err_flags: 0  C: 0  flags: 10 

PASSED: B: 0  A: 0  op: 100  err_flags: 0  C: 0  flags: 10
EXPECTED: err_flags: 0  C: 0  flags: 10 

PASSED: B: 0  A: 0  op: 100  err_flags: 0  C: 0  flags: 10
EXPECTED: err_flags: 0  C: 0  flags: 10 

PASSED: B: 0  A: 0  op: 0  err_flags: 0  C: 0  flags: 10
EXPECTED: err_flags: 0  C: 0  flags: 10 

PASSED: B: ffffffff  A: 0  op: 100  err_flags: 0  C: ffffffff  flags: 1
EXPECTED: err_flags: 0  C: ffffffff  flags: 1 

PASSED: B: ffffffff  A: 0  op: 100  err_flags: 0  C: ffffffff  flags: 1
EXPECTED: err_flags: 0  C: ffffffff  flags: 1 

PASSED: B: ffffffff  A: 0  op: 1  err_flags: 0  C: ffffffff  flags: 1
EXPECTED: err_flags: 0  C: ffffffff  flags: 1 

PASSED: B: ffffffff  A: 0  op: 0  err_flags: 0  C: 0  flags: 10
EXPECTED: err_flags: 0  C: 0  flags: 10 

PASSED: B: ffffffff  A: 0  op: 0  err_flags: 0  C: 0  flags: 10
EXPECTED: err_flags: 0  C: 0  flags: 10 

PASSED: B: ffffffff  A: 0  op: 1  err_flags: 0  C: ffffffff  flags: 1
EXPECTED: err_flags: 0  C: ffffffff  flags: 1 

PASSED: B: ffffffff  A: 0  op: 101  err_flags: 0  C: ffffffff  flags: 1
EXPECTED: err_flags: 0  C: ffffffff  flags: 1 

PASSED: B: ffffffff  A: 0  op: 100  err_flags: 0  C: ffffffff  flags: 1
EXPECTED: err_flags: 0  C: ffffffff  flags: 1 

PASSED: B: ffffffff  A: 0  op: 100  err_flags: 0  C: ffffffff  flags: 1
EXPECTED: err_flags: 0  C: ffffffff  flags: 1 

PASSED: B: ffffffff  A: 0  op: 100  err_flags: 0  C: ffffffff  flags: 1
EXPECTED: err_flags: 0  C: ffffffff  flags: 1 

PASSED: B: ffffffff  A: 0  op: 0  err_flags: 0  C: 0  flags: 10
EXPECTED: err_flags: 0  C: 0  flags: 10 

PASSED: B: ffffffff  A: 0  op: 100  err_flags: 0  C: ffffffff  flags: 1
EXPECTED: err_flags: 0  C: ffffffff  flags: 1 

PASSED: B: ffffffff  A: 0  op: 101  err_flags: 0  C: ffffffff  flags: 1
EXPECTED: err_flags: 0  C: ffffffff  flags: 1 

PASSED: B: ffffffff  A: 0  op: 1  err_flags: 0  C: ffffffff  flags: 1
EXPECTED: err_flags: 0  C: ffffffff  flags: 1 

PASSED: B: ffffffff  A: 0  op: 1  err_flags: 0  C: ffffffff  flags: 1
EXPECTED: err_flags: 0  C: ffffffff  flags: 1 

PASSED: B: ffffffff  A: 0  op: 101  err_flags: 0  C: ffffffff  flags: 1
EXPECTED: err_flags: 0  C: ffffffff  flags: 1 

PASSED: B: ffffffff  A: 0  op: 101  err_flags: 0  C: ffffffff  flags: 1
EXPECTED: err_flags: 0  C: ffffffff  flags: 1 

PASSED: B: ffffffff  A: 0  op: 100  err_flags: 0  C: ffffffff  flags: 1
EXPECTED: err_flags: 0  C: ffffffff  flags: 1 

PASSED: B: ffffffff  A: 0  op: 100  err_flags: 0  C: ffffffff  flags: 1
EXPECTED: err_flags: 0  C: ffffffff  flags: 1 

PASSED: B: ffffffff  A: 0  op: 1  err_flags: 0  C: ffffffff  flags: 1
EXPECTED: err_flags: 0  C: ffffffff  flags: 1 

PASSED: B: ffffffff  A: 0  op: 1  err_flags: 0  C: ffffffff  flags: 1
EXPECTED: err_flags: 0  C: ffffffff  flags: 1 

PASSED: B: ffffffff  A: 0  op: 1  err_flags: 0  C: ffffffff  flags: 1
EXPECTED: err_flags: 0  C: ffffffff  flags: 1 

PASSED: B: ffffffff  A: 0  op: 100  err_flags: 0  C: ffffffff  flags: 1
EXPECTED: err_flags: 0  C: ffffffff  flags: 1 

PASSED: B: ffffffff  A: 0  op: 0  err_flags: 0  C: 0  flags: 10
EXPECTED: err_flags: 0  C: 0  flags: 10 

PASSED: B: ffffffff  A: 0  op: 101  err_flags: 0  C: ffffffff  flags: 1
EXPECTED: err_flags: 0  C: ffffffff  flags: 1 

PASSED: B: ffffffff  A: 0  op: 101  err_flags: 0  C: ffffffff  flags: 1
EXPECTED: err_flags: 0  C: ffffffff  flags: 1 

PASSED: B: ffffffff  A: 0  op: 0  err_flags: 0  C: 0  flags: 10
EXPECTED: err_flags: 0  C: 0  flags: 10 

PASSED: B: ffffffff  A: 0  op: 101  err_flags: 0  C: ffffffff  flags: 1
EXPECTED: err_flags: 0  C: ffffffff  flags: 1 

PASSED: B: ffffffff  A: 0  op: 101  err_flags: 0  C: ffffffff  flags: 1
EXPECTED: err_flags: 0  C: ffffffff  flags: 1 

PASSED: B: ffffffff  A: 0  op: 0  err_flags: 0  C: 0  flags: 10
EXPECTED: err_flags: 0  C: 0  flags: 10 

PASSED: B: ffffffff  A: 0  op: 101  err_flags: 0  C: ffffffff  flags: 1
EXPECTED: err_flags: 0  C: ffffffff  flags: 1 

PASSED: B: ffffffff  A: 0  op: 1  err_flags: 0  C: ffffffff  flags: 1
EXPECTED: err_flags: 0  C: ffffffff  flags: 1 

PASSED: B: ffffffff  A: 0  op: 1  err_flags: 0  C: ffffffff  flags: 1
EXPECTED: err_flags: 0  C: ffffffff  flags: 1 

PASSED: B: ffffffff  A: 0  op: 0  err_flags: 0  C: 0  flags: 10
EXPECTED: err_flags: 0  C: 0  flags: 10 

PASSED: B: ffffffff  A: 0  op: 101  err_flags: 0  C: ffffffff  flags: 1
EXPECTED: err_flags: 0  C: ffffffff  flags: 1 

PASSED: B: ffffffff  A: 0  op: 1  err_flags: 0  C: ffffffff  flags: 1
EXPECTED: err_flags: 0  C: ffffffff  flags: 1 

PASSED: B: ffffffff  A: 0  op: 100  err_flags: 0  C: ffffffff  flags: 1
EXPECTED: err_flags: 0  C: ffffffff  flags: 1 

PASSED: B: ffffffff  A: 0  op: 0  err_flags: 0  C: 0  flags: 10
EXPECTED: err_flags: 0  C: 0  flags: 10 

PASSED: B: ffffffff  A: 0  op: 100  err_flags: 0  C: ffffffff  flags: 1
EXPECTED: err_flags: 0  C: ffffffff  flags: 1 

PASSED: B: ffffffff  A: 0  op: 0  err_flags: 0  C: 0  flags: 10
EXPECTED: err_flags: 0  C: 0  flags: 10 

PASSED: B: ffffffff  A: 0  op: 101  err_flags: 0  C: ffffffff  flags: 1
EXPECTED: err_flags: 0  C: ffffffff  flags: 1 

PASSED: B: ffffffff  A: 0  op: 1  err_flags: 0  C: ffffffff  flags: 1
EXPECTED: err_flags: 0  C: ffffffff  flags: 1 

PASSED: B: ffffffff  A: 0  op: 100  err_flags: 0  C: ffffffff  flags: 1
EXPECTED: err_flags: 0  C: ffffffff  flags: 1 

PASSED: B: ffffffff  A: 0  op: 100  err_flags: 0  C: ffffffff  flags: 1
EXPECTED: err_flags: 0  C: ffffffff  flags: 1 

PASSED: B: ffffffff  A: 0  op: 1  err_flags: 0  C: ffffffff  flags: 1
EXPECTED: err_flags: 0  C: ffffffff  flags: 1 

PASSED: B: ffffffff  A: 0  op: 1  err_flags: 0  C: ffffffff  flags: 1
EXPECTED: err_flags: 0  C: ffffffff  flags: 1 

PASSED: B: ffffffff  A: 0  op: 101  err_flags: 0  C: ffffffff  flags: 1
EXPECTED: err_flags: 0  C: ffffffff  flags: 1 

PASSED: B: ffffffff  A: 0  op: 101  err_flags: 0  C: ffffffff  flags: 1
EXPECTED: err_flags: 0  C: ffffffff  flags: 1 

PASSED: B: ffffffff  A: 0  op: 1  err_flags: 0  C: ffffffff  flags: 1
EXPECTED: err_flags: 0  C: ffffffff  flags: 1 

PASSED: B: ffffffff  A: 0  op: 0  err_flags: 0  C: 0  flags: 10
EXPECTED: err_flags: 0  C: 0  flags: 10 

PASSED: B: 0  A: ffffffff  op: 101  err_flags: 0  C: 1  flags: 1000
EXPECTED: err_flags: 0  C: 1  flags: 1000 

PASSED: B: 0  A: ffffffff  op: 1  err_flags: 0  C: ffffffff  flags: 1
EXPECTED: err_flags: 0  C: ffffffff  flags: 1 

PASSED: B: 0  A: ffffffff  op: 101  err_flags: 0  C: 1  flags: 1000
EXPECTED: err_flags: 0  C: 1  flags: 1000 

PASSED: B: 0  A: ffffffff  op: 100  err_flags: 0  C: ffffffff  flags: 1
EXPECTED: err_flags: 0  C: ffffffff  flags: 1 

PASSED: B: 0  A: ffffffff  op: 0  err_flags: 0  C: 0  flags: 10
EXPECTED: err_flags: 0  C: 0  flags: 10 

PASSED: B: 0  A: ffffffff  op: 100  err_flags: 0  C: ffffffff  flags: 1
EXPECTED: err_flags: 0  C: ffffffff  flags: 1 

PASSED: B: 0  A: ffffffff  op: 100  err_flags: 0  C: ffffffff  flags: 1
EXPECTED: err_flags: 0  C: ffffffff  flags: 1 

PASSED: B: 0  A: ffffffff  op: 0  err_flags: 0  C: 0  flags: 10
EXPECTED: err_flags: 0  C: 0  flags: 10 

PASSED: B: 0  A: ffffffff  op: 100  err_flags: 0  C: ffffffff  flags: 1
EXPECTED: err_flags: 0  C: ffffffff  flags: 1 

PASSED: B: 0  A: ffffffff  op: 100  err_flags: 0  C: ffffffff  flags: 1
EXPECTED: err_flags: 0  C: ffffffff  flags: 1 

PASSED: B: 0  A: ffffffff  op: 101  err_flags: 0  C: 1  flags: 1000
EXPECTED: err_flags: 0  C: 1  flags: 1000 

PASSED: B: 0  A: ffffffff  op: 101  err_flags: 0  C: 1  flags: 1000
EXPECTED: err_flags: 0  C: 1  flags: 1000 

PASSED: B: 0  A: ffffffff  op: 101  err_flags: 0  C: 1  flags: 1000
EXPECTED: err_flags: 0  C: 1  flags: 1000 

PASSED: B: 0  A: ffffffff  op: 101  err_flags: 0  C: 1  flags: 1000
EXPECTED: err_flags: 0  C: 1  flags: 1000 

PASSED: B: 0  A: ffffffff  op: 101  err_flags: 0  C: 1  flags: 1000
EXPECTED: err_flags: 0  C: 1  flags: 1000 

PASSED: B: 0  A: ffffffff  op: 0  err_flags: 0  C: 0  flags: 10
EXPECTED: err_flags: 0  C: 0  flags: 10 

PASSED: B: 0  A: ffffffff  op: 101  err_flags: 0  C: 1  flags: 1000
EXPECTED: err_flags: 0  C: 1  flags: 1000 

PASSED: B: 0  A: ffffffff  op: 101  err_flags: 0  C: 1  flags: 1000
EXPECTED: err_flags: 0  C: 1  flags: 1000 

PASSED: B: 0  A: ffffffff  op: 100  err_flags: 0  C: ffffffff  flags: 1
EXPECTED: err_flags: 0  C: ffffffff  flags: 1 

PASSED: B: 0  A: ffffffff  op: 100  err_flags: 0  C: ffffffff  flags: 1
EXPECTED: err_flags: 0  C: ffffffff  flags: 1 

PASSED: B: 0  A: ffffffff  op: 1  err_flags: 0  C: ffffffff  flags: 1
EXPECTED: err_flags: 0  C: ffffffff  flags: 1 

PASSED: B: 0  A: ffffffff  op: 1  err_flags: 0  C: ffffffff  flags: 1
EXPECTED: err_flags: 0  C: ffffffff  flags: 1 

PASSED: B: 0  A: ffffffff  op: 100  err_flags: 0  C: ffffffff  flags: 1
EXPECTED: err_flags: 0  C: ffffffff  flags: 1 

PASSED: B: 0  A: ffffffff  op: 1  err_flags: 0  C: ffffffff  flags: 1
EXPECTED: err_flags: 0  C: ffffffff  flags: 1 

PASSED: B: 0  A: ffffffff  op: 1  err_flags: 0  C: ffffffff  flags: 1
EXPECTED: err_flags: 0  C: ffffffff  flags: 1 

PASSED: B: 0  A: ffffffff  op: 101  err_flags: 0  C: 1  flags: 1000
EXPECTED: err_flags: 0  C: 1  flags: 1000 

PASSED: B: 0  A: ffffffff  op: 1  err_flags: 0  C: ffffffff  flags: 1
EXPECTED: err_flags: 0  C: ffffffff  flags: 1 

PASSED: B: 0  A: ffffffff  op: 0  err_flags: 0  C: 0  flags: 10
EXPECTED: err_flags: 0  C: 0  flags: 10 

PASSED: B: 0  A: ffffffff  op: 0  err_flags: 0  C: 0  flags: 10
EXPECTED: err_flags: 0  C: 0  flags: 10 

PASSED: B: 0  A: ffffffff  op: 100  err_flags: 0  C: ffffffff  flags: 1
EXPECTED: err_flags: 0  C: ffffffff  flags: 1 

PASSED: B: 0  A: ffffffff  op: 101  err_flags: 0  C: 1  flags: 1000
EXPECTED: err_flags: 0  C: 1  flags: 1000 

PASSED: B: 0  A: ffffffff  op: 100  err_flags: 0  C: ffffffff  flags: 1
EXPECTED: err_flags: 0  C: ffffffff  flags: 1 

PASSED: B: 0  A: ffffffff  op: 0  err_flags: 0  C: 0  flags: 10
EXPECTED: err_flags: 0  C: 0  flags: 10 

PASSED: B: 0  A: ffffffff  op: 100  err_flags: 0  C: ffffffff  flags: 1
EXPECTED: err_flags: 0  C: ffffffff  flags: 1 

PASSED: B: 0  A: ffffffff  op: 1  err_flags: 0  C: ffffffff  flags: 1
EXPECTED: err_flags: 0  C: ffffffff  flags: 1 

PASSED: B: 0  A: ffffffff  op: 101  err_flags: 0  C: 1  flags: 1000
EXPECTED: err_flags: 0  C: 1  flags: 1000 

PASSED: B: 0  A: ffffffff  op: 100  err_flags: 0  C: ffffffff  flags: 1
EXPECTED: err_flags: 0  C: ffffffff  flags: 1 

PASSED: B: 0  A: ffffffff  op: 100  err_flags: 0  C: ffffffff  flags: 1
EXPECTED: err_flags: 0  C: ffffffff  flags: 1 

PASSED: B: 0  A: ffffffff  op: 101  err_flags: 0  C: 1  flags: 1000
EXPECTED: err_flags: 0  C: 1  flags: 1000 

PASSED: B: 0  A: ffffffff  op: 100  err_flags: 0  C: ffffffff  flags: 1
EXPECTED: err_flags: 0  C: ffffffff  flags: 1 

PASSED: B: 0  A: ffffffff  op: 100  err_flags: 0  C: ffffffff  flags: 1
EXPECTED: err_flags: 0  C: ffffffff  flags: 1 

PASSED: B: 0  A: ffffffff  op: 0  err_flags: 0  C: 0  flags: 10
EXPECTED: err_flags: 0  C: 0  flags: 10 

PASSED: B: 0  A: ffffffff  op: 1  err_flags: 0  C: ffffffff  flags: 1
EXPECTED: err_flags: 0  C: ffffffff  flags: 1 

PASSED: B: 0  A: ffffffff  op: 0  err_flags: 0  C: 0  flags: 10
EXPECTED: err_flags: 0  C: 0  flags: 10 

PASSED: B: 0  A: ffffffff  op: 0  err_flags: 0  C: 0  flags: 10
EXPECTED: err_flags: 0  C: 0  flags: 10 

PASSED: B: 0  A: ffffffff  op: 101  err_flags: 0  C: 1  flags: 1000
EXPECTED: err_flags: 0  C: 1  flags: 1000 

PASSED: B: 0  A: ffffffff  op: 0  err_flags: 0  C: 0  flags: 10
EXPECTED: err_flags: 0  C: 0  flags: 10 

PASSED: B: 0  A: ffffffff  op: 1  err_flags: 0  C: ffffffff  flags: 1
EXPECTED: err_flags: 0  C: ffffffff  flags: 1 

PASSED: B: 0  A: ffffffff  op: 101  err_flags: 0  C: 1  flags: 1000
EXPECTED: err_flags: 0  C: 1  flags: 1000 

PASSED: B: 0  A: ffffffff  op: 1  err_flags: 0  C: ffffffff  flags: 1
EXPECTED: err_flags: 0  C: ffffffff  flags: 1 

PASSED: B: ffffffff  A: ffffffff  op: 1  err_flags: 0  C: ffffffff  flags: 1
EXPECTED: err_flags: 0  C: ffffffff  flags: 1 

PASSED: B: ffffffff  A: ffffffff  op: 1  err_flags: 0  C: ffffffff  flags: 1
EXPECTED: err_flags: 0  C: ffffffff  flags: 1 

PASSED: B: ffffffff  A: ffffffff  op: 100  err_flags: 0  C: fffffffe  flags: 1001
EXPECTED: err_flags: 0  C: fffffffe  flags: 1001 

PASSED: B: ffffffff  A: ffffffff  op: 100  err_flags: 0  C: fffffffe  flags: 1001
EXPECTED: err_flags: 0  C: fffffffe  flags: 1001 

PASSED: B: ffffffff  A: ffffffff  op: 100  err_flags: 0  C: fffffffe  flags: 1001
EXPECTED: err_flags: 0  C: fffffffe  flags: 1001 

PASSED: B: ffffffff  A: ffffffff  op: 1  err_flags: 0  C: ffffffff  flags: 1
EXPECTED: err_flags: 0  C: ffffffff  flags: 1 

PASSED: B: ffffffff  A: ffffffff  op: 100  err_flags: 0  C: fffffffe  flags: 1001
EXPECTED: err_flags: 0  C: fffffffe  flags: 1001 

PASSED: B: ffffffff  A: ffffffff  op: 0  err_flags: 0  C: ffffffff  flags: 1
EXPECTED: err_flags: 0  C: ffffffff  flags: 1 

FAILED: B: ffffffff  A: ffffffff  op: 101  err_flags: 0  C: 0  flags: 10
EXPECTED: err_flags: 0  C: 0  flags: 110 

PASSED: B: ffffffff  A: ffffffff  op: 1  err_flags: 0  C: ffffffff  flags: 1
EXPECTED: err_flags: 0  C: ffffffff  flags: 1 

PASSED: B: ffffffff  A: ffffffff  op: 0  err_flags: 0  C: ffffffff  flags: 1
EXPECTED: err_flags: 0  C: ffffffff  flags: 1 

PASSED: B: ffffffff  A: ffffffff  op: 0  err_flags: 0  C: ffffffff  flags: 1
EXPECTED: err_flags: 0  C: ffffffff  flags: 1 

PASSED: B: ffffffff  A: ffffffff  op: 0  err_flags: 0  C: ffffffff  flags: 1
EXPECTED: err_flags: 0  C: ffffffff  flags: 1 

PASSED: B: ffffffff  A: ffffffff  op: 1  err_flags: 0  C: ffffffff  flags: 1
EXPECTED: err_flags: 0  C: ffffffff  flags: 1 

FAILED: B: ffffffff  A: ffffffff  op: 101  err_flags: 0  C: 0  flags: 10
EXPECTED: err_flags: 0  C: 0  flags: 110 

PASSED: B: ffffffff  A: ffffffff  op: 100  err_flags: 0  C: fffffffe  flags: 1001
EXPECTED: err_flags: 0  C: fffffffe  flags: 1001 

PASSED: B: ffffffff  A: ffffffff  op: 0  err_flags: 0  C: ffffffff  flags: 1
EXPECTED: err_flags: 0  C: ffffffff  flags: 1 

PASSED: B: ffffffff  A: ffffffff  op: 0  err_flags: 0  C: ffffffff  flags: 1
EXPECTED: err_flags: 0  C: ffffffff  flags: 1 

PASSED: B: ffffffff  A: ffffffff  op: 1  err_flags: 0  C: ffffffff  flags: 1
EXPECTED: err_flags: 0  C: ffffffff  flags: 1 

PASSED: B: ffffffff  A: ffffffff  op: 1  err_flags: 0  C: ffffffff  flags: 1
EXPECTED: err_flags: 0  C: ffffffff  flags: 1 

PASSED: B: ffffffff  A: ffffffff  op: 0  err_flags: 0  C: ffffffff  flags: 1
EXPECTED: err_flags: 0  C: ffffffff  flags: 1 

PASSED: B: ffffffff  A: ffffffff  op: 100  err_flags: 0  C: fffffffe  flags: 1001
EXPECTED: err_flags: 0  C: fffffffe  flags: 1001 

PASSED: B: ffffffff  A: ffffffff  op: 100  err_flags: 0  C: fffffffe  flags: 1001
EXPECTED: err_flags: 0  C: fffffffe  flags: 1001 

PASSED: B: ffffffff  A: ffffffff  op: 1  err_flags: 0  C: ffffffff  flags: 1
EXPECTED: err_flags: 0  C: ffffffff  flags: 1 

PASSED: B: ffffffff  A: ffffffff  op: 100  err_flags: 0  C: fffffffe  flags: 1001
EXPECTED: err_flags: 0  C: fffffffe  flags: 1001 

PASSED: B: ffffffff  A: ffffffff  op: 0  err_flags: 0  C: ffffffff  flags: 1
EXPECTED: err_flags: 0  C: ffffffff  flags: 1 

FAILED: B: ffffffff  A: ffffffff  op: 101  err_flags: 0  C: 0  flags: 10
EXPECTED: err_flags: 0  C: 0  flags: 110 

PASSED: B: ffffffff  A: ffffffff  op: 100  err_flags: 0  C: fffffffe  flags: 1001
EXPECTED: err_flags: 0  C: fffffffe  flags: 1001 

PASSED: B: ffffffff  A: ffffffff  op: 100  err_flags: 0  C: fffffffe  flags: 1001
EXPECTED: err_flags: 0  C: fffffffe  flags: 1001 

PASSED: B: ffffffff  A: ffffffff  op: 100  err_flags: 0  C: fffffffe  flags: 1001
EXPECTED: err_flags: 0  C: fffffffe  flags: 1001 

PASSED: B: ffffffff  A: ffffffff  op: 1  err_flags: 0  C: ffffffff  flags: 1
EXPECTED: err_flags: 0  C: ffffffff  flags: 1 

PASSED: B: ffffffff  A: ffffffff  op: 100  err_flags: 0  C: fffffffe  flags: 1001
EXPECTED: err_flags: 0  C: fffffffe  flags: 1001 

PASSED: B: ffffffff  A: ffffffff  op: 1  err_flags: 0  C: ffffffff  flags: 1
EXPECTED: err_flags: 0  C: ffffffff  flags: 1 

FAILED: B: ffffffff  A: ffffffff  op: 101  err_flags: 0  C: 0  flags: 10
EXPECTED: err_flags: 0  C: 0  flags: 110 

PASSED: B: ffffffff  A: ffffffff  op: 100  err_flags: 0  C: fffffffe  flags: 1001
EXPECTED: err_flags: 0  C: fffffffe  flags: 1001 

PASSED: B: ffffffff  A: ffffffff  op: 0  err_flags: 0  C: ffffffff  flags: 1
EXPECTED: err_flags: 0  C: ffffffff  flags: 1 

PASSED: B: ffffffff  A: ffffffff  op: 100  err_flags: 0  C: fffffffe  flags: 1001
EXPECTED: err_flags: 0  C: fffffffe  flags: 1001 

PASSED: B: ffffffff  A: ffffffff  op: 100  err_flags: 0  C: fffffffe  flags: 1001
EXPECTED: err_flags: 0  C: fffffffe  flags: 1001 

PASSED: B: ffffffff  A: ffffffff  op: 1  err_flags: 0  C: ffffffff  flags: 1
EXPECTED: err_flags: 0  C: ffffffff  flags: 1 

PASSED: B: ffffffff  A: ffffffff  op: 0  err_flags: 0  C: ffffffff  flags: 1
EXPECTED: err_flags: 0  C: ffffffff  flags: 1 

PASSED: B: ffffffff  A: ffffffff  op: 100  err_flags: 0  C: fffffffe  flags: 1001
EXPECTED: err_flags: 0  C: fffffffe  flags: 1001 

PASSED: B: ffffffff  A: ffffffff  op: 0  err_flags: 0  C: ffffffff  flags: 1
EXPECTED: err_flags: 0  C: ffffffff  flags: 1 

PASSED: B: ffffffff  A: ffffffff  op: 100  err_flags: 0  C: fffffffe  flags: 1001
EXPECTED: err_flags: 0  C: fffffffe  flags: 1001 

FAILED: B: ffffffff  A: ffffffff  op: 101  err_flags: 0  C: 0  flags: 10
EXPECTED: err_flags: 0  C: 0  flags: 110 

